CgXBP1_analysis
…
cg_xbp1_tidy <- sample_wise_fpkm_mat_final
cg_xbp1_tidy <- cg_xbp1_tidy %>%
        tidyr::gather("Cond", "FPKM", -geneName) %>%
        tidyr::separate(col = "Cond", sep = "_", into = c("organism", "strain", "condition", "timepoint", "moleculeType", "replicate"))

## combine datasets
cg_polII_data <- dplyr::bind_rows(cg_wt_tidy, cg_xbp1_tidy) %>%
        dplyr::group_by(geneName, strain, condition, replicate) %>%
        dplyr::mutate(stdev = sd(FPKM)) ## calculate sd within group across all timepoints . Make sure that number of elem in each group must be equal to time points.

dplyr::bind_rows(cg_wt_tidy, cg_xbp1_tidy) %>% dplyr::group_by(geneName, strain, condition, replicate) %>% 
        dplyr::tally() %>% 
        dplyr::arrange(desc(n))

# A tibble: 15,933 × 5
# Groups:   geneName, strain, condition [10,622]
   geneName     strain condition replicate     n
   <chr>        <chr>  <chr>     <chr>     <int>
 1 CAGL0A00105g wt     thp1      set1          5
 2 CAGL0A00105g xbp1   thp1      set1          5
 3 CAGL0A00105g xbp1   thp1      set2          5
 4 CAGL0A00110g wt     thp1      set1          5
 5 CAGL0A00110g xbp1   thp1      set1          5
 6 CAGL0A00110g xbp1   thp1      set2          5
 7 CAGL0A00116g wt     thp1      set1          5
 8 CAGL0A00116g xbp1   thp1      set1          5
 9 CAGL0A00116g xbp1   thp1      set2          5
10 CAGL0A00132g wt     thp1      set1          5
# ℹ 15,923 more rows
…
