CgXBP1_analysis
…
xbp1_fpkm_mat <- xbp1_fpkm_mat %>%
        tidyr::gather("Cond", "FPKM", -gene_name) %>%
        tidyr::separate(col = "Cond", sep = "_", into = c("organism", "strain", "condition", "timepoint", "replicate"))

## combine datasets
cg_polII_data <- dplyr::bind_rows(wt_fpkm_mat, xbp1_fpkm_mat) %>%
        dplyr::group_by(gene_name, strain, condition, replicate) %>%
        dplyr::mutate(stdev = sd(FPKM)) ## calculate sd within group across all timepoints . Make sure that number of elem in each group must be equal to time points.

dplyr::bind_rows(wt_fpkm_mat, xbp1_fpkm_mat) %>% dplyr::group_by(gene_name, strain, condition, replicate) %>% 
        dplyr::tally() %>% 
        dplyr::arrange(desc(n))

# A tibble: 21,244 × 5
# Groups:   gene_name, strain, condition [10,622]
   gene_name    strain condition replicate     n
   <chr>        <chr>  <chr>     <chr>     <int>
 1 CAGL0A00105g wt     thp1      set1          5
 2 CAGL0A00105g wt     thp1      set2          5
 3 CAGL0A00105g xbp1   thp1      set1          5
 4 CAGL0A00105g xbp1   thp1      set2          5
 5 CAGL0A00110g wt     thp1      set1          5
 6 CAGL0A00110g wt     thp1      set2          5
 7 CAGL0A00110g xbp1   thp1      set1          5
 8 CAGL0A00110g xbp1   thp1      set2          5
 9 CAGL0A00116g wt     thp1      set1          5
10 CAGL0A00116g wt     thp1      set2          5
# ℹ 21,234 more rows
…
